{
  "info": {
    "_postman_id": "5e944f84-e413-4282-919c-f394affeae10",
    "name": "Teste ioasys",
    "schema": "https://schema.getpostman.com/json/collection/v2.1.0/collection.json"
  },
  "item": [
    {
      "name": "Users",
      "item": [
        {
          "name": "Create User",
          "request": {
            "method": "POST",
            "header": [],
            "body": {
              "mode": "raw",
              "raw": "{\n\t\"name\": \"raphael\",\n\t\"email\": \"raphael@gmail.com\",\n\t\"password\": \"raphael123\",\n\t\"confirmPassword\": \"raphael123\"\n}",
              "options": {
                "raw": {
                  "language": "json"
                }
              }
            },
            "url": {
              "raw": "{{base_url}}/register",
              "host": ["{{base_url}}"],
              "path": ["register"]
            }
          },
          "response": []
        },
        {
          "name": "Create Admin",
          "request": {
            "method": "POST",
            "header": [],
            "body": {
              "mode": "raw",
              "raw": "{\n\t\"name\": \"admin\",\n\t\"email\": \"admin@gmail.com\",\n\t\"password\": \"raphael123\",\n\t\"confirmPassword\": \"raphael123\"\n}",
              "options": {
                "raw": {
                  "language": "json"
                }
              }
            },
            "url": {
              "raw": "{{base_url}}/admin",
              "host": ["{{base_url}}"],
              "path": ["admin"]
            }
          },
          "response": []
        },
        {
          "name": "Sign in",
          "request": {
            "method": "POST",
            "header": [],
            "body": {
              "mode": "raw",
              "raw": "{\n\t\"email\": \"raphael@gmail.com\",\n\t\"password\": \"raphael123\"\n}",
              "options": {
                "raw": {
                  "language": "json"
                }
              }
            },
            "url": {
              "raw": "{{base_url}}/signin",
              "host": ["{{base_url}}"],
              "path": ["signin"]
            }
          },
          "response": []
        },
        {
          "name": "Update Account",
          "request": {
            "auth": {
              "type": "bearer",
              "bearer": [
                {
                  "key": "token",
                  "value": "eyJhbGciOiJIUzI1NiIsInR5cCI6IkpXVCJ9.eyJpZCI6IjllNGE3NWQ3LWFmMDMtNDA1My04ZmM2LWRkZmUzZjkwYWNlMSIsImlhdCI6MTYyMzAwMDIwMCwiZXhwIjoxNjI4MTg0MjAwfQ.PngEz0jyKphz3LrQC4AOvw6vwFx6pFd491Xnsx0tpDE",
                  "type": "string"
                }
              ]
            },
            "method": "PUT",
            "header": [],
            "body": {
              "mode": "raw",
              "raw": "{\n\t\"name\": \"nome atualizado\"\n}",
              "options": {
                "raw": {
                  "language": "json"
                }
              }
            },
            "url": {
              "raw": "{{base_url}}/users",
              "host": ["{{base_url}}"],
              "path": ["users"]
            }
          },
          "response": []
        },
        {
          "name": "Deactivate Account",
          "request": {
            "auth": {
              "type": "bearer",
              "bearer": [
                {
                  "key": "token",
                  "value": "eyJhbGciOiJIUzI1NiIsInR5cCI6IkpXVCJ9.eyJpZCI6IjllNGE3NWQ3LWFmMDMtNDA1My04ZmM2LWRkZmUzZjkwYWNlMSIsImlhdCI6MTYyMzAwMDIwMCwiZXhwIjoxNjI4MTg0MjAwfQ.PngEz0jyKphz3LrQC4AOvw6vwFx6pFd491Xnsx0tpDE",
                  "type": "string"
                }
              ]
            },
            "method": "DELETE",
            "header": [],
            "url": {
              "raw": "{{base_url}}/users/deactivate",
              "host": ["{{base_url}}"],
              "path": ["users", "deactivate"]
            }
          },
          "response": []
        }
      ]
    },
    {
      "name": "Movies",
      "item": [
        {
          "name": "List Movies",
          "request": {
            "method": "GET",
            "header": [],
            "url": {
              "raw": "{{base_url}}/movies",
              "host": ["{{base_url}}"],
              "path": ["movies"]
            }
          },
          "response": []
        },
        {
          "name": "Movie Details",
          "request": {
            "method": "GET",
            "header": [],
            "url": {
              "raw": "{{base_url}}/movies/56b2955d-3845-4f29-b9db-8ba4094084b9",
              "host": ["{{base_url}}"],
              "path": ["movies", "56b2955d-3845-4f29-b9db-8ba4094084b9"]
            }
          },
          "response": []
        },
        {
          "name": "Create Movie",
          "request": {
            "auth": {
              "type": "bearer",
              "bearer": [
                {
                  "key": "token",
                  "value": "eyJhbGciOiJIUzI1NiIsInR5cCI6IkpXVCJ9.eyJpZCI6Ijk1ZDFiYjA0LWZkMmYtNGRjZi1hMmZmLTdjOTg0ZTc3MjViNyIsImlhdCI6MTYyMzAwMDMxMywiZXhwIjoxNjI4MTg0MzEzfQ.ltSbRBaO56JnQa8ROivKrTzO1b0GexuV9LiQ1LnXwW4",
                  "type": "string"
                }
              ]
            },
            "method": "POST",
            "header": [],
            "body": {
              "mode": "raw",
              "raw": "{\n\t\"title\": \"vingadores Ultimato\",\n\t\"description\": \"Melhor filme de todos os tempos\",\n\t\"releaseDate\": \"2021-06-06T15:42:01.261Z\",\n\t\"actors\": [\n\t\t{\n\t\t\t\"name\": \"Tom Holland\"\n\t\t},\n\t\t{\n\t\t\t\"name\": \"João Pedro\"\n\t\t}\n\t],\n\t\"genre\": [\n\t\t\"Action\"\n\t],\n\t\"director\": {\n\t\t\"name\": \"Raphael\"\n\t}\n}",
              "options": {
                "raw": {
                  "language": "json"
                }
              }
            },
            "url": {
              "raw": "{{base_url}}/movies",
              "host": ["{{base_url}}"],
              "path": ["movies"]
            }
          },
          "response": []
        },
        {
          "name": "Rate Movie",
          "request": {
            "auth": {
              "type": "bearer",
              "bearer": [
                {
                  "key": "token",
                  "value": "eyJhbGciOiJIUzI1NiIsInR5cCI6IkpXVCJ9.eyJpZCI6IjUwYmNhMmM5LTFkOWMtNDAzOC04M2YwLWNjOWM0N2Q4MDk1ZiIsImlhdCI6MTYyMzAwMDQ2MSwiZXhwIjoxNjI4MTg0NDYxfQ.ZJVhICVgbQklJJB8Taf4GP3zegeDinof3NgRBUS8r0s",
                  "type": "string"
                }
              ]
            },
            "method": "POST",
            "header": [],
            "body": {
              "mode": "raw",
              "raw": "{\n    \"rating\": 1\n}",
              "options": {
                "raw": {
                  "language": "json"
                }
              }
            },
            "url": {
              "raw": "{{base_url}}/movies/56b2955d-3845-4f29-b9db-8ba4094084b9/rate",
              "host": ["{{base_url}}"],
              "path": ["movies", "56b2955d-3845-4f29-b9db-8ba4094084b9", "rate"]
            }
          },
          "response": []
        }
      ]
    }
  ],
  "event": [
    {
      "listen": "prerequest",
      "script": {
        "type": "text/javascript",
        "exec": [""]
      }
    },
    {
      "listen": "test",
      "script": {
        "type": "text/javascript",
        "exec": [""]
      }
    }
  ],
  "variable": [
    {
      "key": "base_url",
      "value": "http://localhost:3333"
    }
  ]
}
